Measles serology
…
The total collection:

dataset <- last2collections |>
  bind_rows(first_collection) |> 
  mutate(year = year(collection_date),
         time_point = case_match(year, 2019:2020 ~ "T1",
                                       2022:2023 ~ "T2", .default = "T3")) |> 
  select(-year)

Which gives:

dataset

# A tibble: 5,573 × 13
   participant province hospital site  collection sample_ID      age_group sex  
   <chr>       <chr>    <chr>    <chr> <chr>      <chr>          <chr>     <chr>
 1 0076        An Giang BV DK AG 119   06         20FL-119-0600… 15≤ & <16 male 
 2 0077        An Giang BV DK AG 119   06         20FL-119-0600… 15≤ & <16 male 
 3 0078        An Giang BV DK AG 119   06         20FL-119-0600… 15≤ & <16 male 
 4 0079        An Giang BV DK AG 119   06         20FL-119-0600… 15≤ & <16 fema…
 5 0080        An Giang BV DK AG 119   06         20FL-119-0600… 15≤ & <16 fema…
 6 0081        An Giang BV DK AG 119   06         20FL-119-0600… 16≤ & <17 fema…
 7 0082        An Giang BV DK AG 119   06         20FL-119-0600… 16≤ & <17 fema…
 8 0083        An Giang BV DK AG 119   06         20FL-119-0600… 16≤ & <17 fema…
 9 0084        An Giang BV DK AG 119   06         20FL-119-0600… 16≤ & <17 male 
10 0085        An Giang BV DK AG 119   06         20FL-119-0600… 16≤ & <17 fema…
# ℹ 5,563 more rows
# ℹ 5 more variables: collection_date <date>, plate <chr>, titer <dbl>,
#   conclusion <chr>, time_point <chr>
…
